{
  "news": [
    {
      "id": 1,
      "title": "News Article 1",
      "description": "New Description 1",
      "category": "sports"
    },
    {
      "id": 2,
      "title": "News Article 2",
      "description": "Description 2",
      "category": "politics"
    },
    {
      "id": 3,
      "title": "News Article 3",
      "description": "Description 3",
      "category": "music"
    },
    {
      "id": 4,
      "title": "News Article 4",
      "description": "Description 4",
      "category": "sports"
    },
    {
      "id": 5,
      "title": "News Article 5",
      "description": "Description 5",
      "category": "music"
    }
  ]
}
